Number of cities: 280
Number of Ants: 64
alpha: 1
beta: 1
evaporation rate: 0.1
initial_pheromone: -1
la pheromona inicial calculada es 0.000311526
Applying textures
The shared allocated is 17920
For the first kernel: Number of ants is 64, Kbytes allocated: 0.0774144
Threads for the first kernel 64, blocks for the first kenrel: 1, threads for the second kernel 128, blocks for the second kenrel: 613
