Number of cities: 280
Number of Ants: 16
alpha: 1
beta: 1
evaporation rate: 0.1
initial_pheromone: -1
la pheromona inicial calculada es 0.000311526
For the first kernel: Number of ants is 16, Kbytes allocated: 0.0663936
Threads for the first kernel 16, blocks for the first kenrel: 1, threads for the second kernel 128, blocks for the second kenrel: 613
Total execution time: 400.17sec 	
Best Tour Lenght
6780	
Best Ordering
257, 256, 262, 139, 266, 135, 149, 151, 121, 120, 119, 118, 19, 197, 192, 194, 193, 200, 198, 202, 201, 142, 138, 148, 137, 267, 268, 263, 141, 140, 143, 195, 196, 191, 190, 188, 189, 186, 184, 160, 159, 174, 179, 183, 182, 162, 171, 170, 164, 187, 185, 181, 175, 176, 180, 157, 152, 153, 122, 123, 124, 29, 28, 27, 26, 25, 21, 22, 13, 12, 11, 14, 18, 17, 16, 15, 270, 271, 9, 10, 243, 229, 210, 251, 250, 238, 247, 2, 3, 4, 276, 278, 277, 248, 254, 252, 249, 207, 214, 203, 199, 145, 146, 147, 264, 136, 265, 134, 133, 130, 24, 23, 0, 1, 275, 274, 273, 8, 6, 7, 163, 172, 169, 91, 90, 89, 108, 107, 109, 110, 111, 87, 81, 80, 79, 78, 77, 76, 75, 74, 73, 72, 71, 70, 69, 68, 67, 66, 65, 64, 63, 62, 61, 60, 59, 42, 41, 40, 36, 32, 33, 34, 35, 44, 43, 56, 55, 54, 53, 52, 51, 50, 49, 48, 47, 46, 45, 37, 39, 38, 31, 30, 112, 113, 114, 116, 117, 57, 58, 231, 225, 228, 244, 241, 240, 246, 245, 237, 230, 226, 227, 206, 213, 212, 211, 215, 218, 221, 219, 216, 204, 209, 205, 253, 261, 272, 259, 260, 255, 208, 0, 232, 224, 223, 222, 220, 217, 0, 279, 242, 239, 236, 233, 234, 235, 0, 5, 20, 126, 125, 177, 178, 150, 156, 158, 155, 154, 127, 86, 85, 84, 83, 82, 103, 102, 101, 100, 99, 98, 96, 95, 94, 93, 92, 88, 105, 104, 106, 258, 0, 269, 131, 132, 129, 128, 0, 168, 167, 166, 165, 257, 

