Number of cities: 280
Number of Ants: 256
alpha: 1
beta: 1
evaporation rate: 0.1
initial_pheromone: -1
la pheromona inicial calculada es 0.000311526
Applying textures
For the first kernel: Number of ants is 256, Kbytes allocated: 0.121498
Threads for the first kernel 128, blocks for the first kenrel: 2, threads for the second kernel 128, blocks for the second kenrel: 613
Total execution time: 1175.74sec 	
Best Tour Lenght
6026	
Best Ordering
276, 3, 4, 5, 273, 272, 14, 15, 16, 17, 18, 19, 23, 22, 21, 24, 25, 26, 27, 28, 29, 30, 31, 32, 33, 34, 35, 36, 37, 38, 39, 40, 41, 42, 59, 60, 61, 62, 63, 64, 65, 70, 71, 72, 73, 74, 269, 136, 135, 267, 268, 262, 257, 256, 253, 248, 247, 246, 243, 242, 249, 255, 254, 208, 206, 211, 205, 210, 209, 204, 212, 214, 215, 218, 223, 221, 217, 216, 220, 222, 224, 225, 233, 228, 227, 236, 234, 231, 245, 232, 235, 230, 250, 229, 238, 244, 240, 237, 239, 241, 1, 0, 77, 76, 46, 47, 48, 49, 50, 51, 52, 53, 54, 55, 56, 57, 58, 43, 44, 45, 67, 68, 69, 78, 79, 80, 81, 82, 83, 84, 85, 86, 87, 88, 89, 90, 91, 92, 93, 94, 95, 96, 97, 98, 99, 100, 101, 102, 103, 104, 105, 106, 107, 108, 109, 110, 111, 112, 113, 114, 115, 116, 117, 118, 119, 120, 121, 122, 123, 124, 125, 126, 127, 20, 263, 264, 141, 144, 143, 196, 200, 201, 202, 142, 147, 145, 198, 197, 192, 191, 193, 194, 195, 199, 146, 148, 140, 137, 139, 138, 266, 265, 134, 133, 132, 131, 130, 128, 153, 129, 154, 152, 155, 150, 176, 159, 156, 151, 157, 158, 174, 162, 172, 170, 167, 165, 171, 168, 169, 166, 164, 188, 186, 189, 190, 185, 184, 183, 182, 178, 149, 177, 175, 180, 179, 181, 160, 161, 173, 0, 75, 274, 271, 270, 13, 7, 8, 9, 10, 11, 12, 2, 279, 278, 277, 259, 261, 260, 275, 6, 258, 0, 252, 251, 207, 213, 219, 0, 66, 187, 276, 

