Number of cities: 280
Number of Ants: 4096
alpha: 1
beta: 1
evaporation rate: 0.1
initial_pheromone: -1
la pheromona inicial calculada es 0.000311526
Applying textures
For the first kernel: Number of ants is 4096, Kbytes allocated: 1.00316
Threads for the first kernel 128, blocks for the first kenrel: 32, threads for the second kernel 128, blocks for the second kenrel: 613
