Tesla C2070	-1	1	0.587302	0.003744	0
GeForce GTX 590	-1	1	0.616667	0.004256	0
GeForce GTX 590	-1	1	1.000000	0.002944	0
Tesla K20c	-1	1	0.456790	0.004224	0
GeForce GTX 480	-1	1	0.755102	0.002592	0
Tesla C2070	17584	694	0.587302	13298.434570	5000
GeForce GTX 480	17524	4745	0.755102	19396.566406	5000
Tesla K20c	17507	875	0.456790	21283.560547	5000
GeForce GTX 590	17549	2291	0.616667	21284.546875	5000
GeForce GTX 590	17579	27	1.000000	25024.376953	5000
