Tesla K20c	-1	1	0.972222	0.003584	0
Tesla C2070	-1	1	0.583333	0.004256	0
GeForce GTX 590	-1	1	1.000000	0.002816	0
GeForce GTX 590	-1	1	0.546875	0.003840	0
GeForce GTX 480	-1	1	0.578512	0.004224	0
GeForce GTX 590	48187	1246	0.546875	57559.058594	5000
Tesla K20c	47135	2227	0.972222	87192.304688	5000
Tesla C2070	48041	86	0.583333	90029.484375	5000
GeForce GTX 480	48458	4345	0.578512	90049.726562	5000
GeForce GTX 590	47548	365	1.000000	110158.867188	5000
