GeForce GTX 480	-1	1	1.000000	0.002336	0
GeForce GTX 590	-1	1	0.755102	0.006560	0
Tesla C2070	-1	1	0.611570	0.005056	0
Tesla K20c	-1	1	0.606557	0.004992	0
GeForce GTX 590	-1	1	0.587302	0.003680	0
GeForce GTX 590	316420	561	0.587302	1006529.187500	5000
GeForce GTX 590	318927	287	0.755102	1681644.625000	5000
Tesla C2070	318371	75	0.611570	1824201.250000	5000
Tesla K20c	316789	3435	0.606557	1824236.875000	5000
GeForce GTX 480	314460	3890	1.000000	2209250.500000	5000
