Tesla K20c	-1	1	1.000000	0.002336	0
GeForce GTX 590	-1	1	0.773196	0.003104	0
GeForce GTX 480	-1	1	0.619835	0.005056	0
GeForce GTX 590	-1	1	0.619835	0.004992	0
Tesla C2070	-1	1	0.600000	0.003872	0
GeForce GTX 480	12139	1	0.619835	0.005056	5000
Tesla C2070	10700	464	0.600000	604614.562500	5000
GeForce GTX 590	10846	1542	0.773196	1004488.750000	5000
GeForce GTX 590	10690	4517	0.619835	1075095.500000	5000
Tesla K20c	10685	262	1.000000	1317593.000000	5000
